Parameter ! first
1 0.0000 -1.0000
2 0.0000 -1.0000
3 0.0000 -1.0000
4 0.0000 -1.0000
5 0.0000 -1.0000
6 0.0000 -1.0000
11 0.0000 -1.0000
12 -0.0 -2.0E-03
13 0.0000 -0.005
14 0.0000 -1.0E-03
16 0.0000 -1.0000
21 0.0000 -1.0000
22 0.0 2.0E-03
23 0.0000 0.005
24 0.0000 1.0E-03
26 0.0000 -1.0000
31 0.0000 -1.0000
32 -0.0 2.0E-03
33 0.0000 0.005
34 0.0000 1.0E-03
36 0.0000 -1.0000
41 0.0000 -1.0000
42 0.0 2.0E-03
43 0.0000 -0.005
44 0.0000 1.0E-03
46 0.0000 -1.0000
51 0.0000 -1.0000
52 -0.0 2.0E-03
53 0.0000 0.005
54 0.0000 1.0E-03
56 0.0000 -1.0000
61 0.0000 -1.0000
62 0.0 2.0E-03
63 0.0000 -0.005
64 0.0000 1.0E-03
66 0.0000 -1.0000
